--Request 
GET http://184.105.53.68:8080/cgi-bin/home
Host: 184.105.53.68:8080
Upgrade-Insecure-Requests: 1
User-Agent: Mozilla/5.0 (Windows NT 10.0; Win64; x64) AppleWebKit/537.36 (KHTML, like Gecko) Chrome/90.0.4430.93 Safari/537.36
Accept: text/html,application/xhtml+xml,application/xml;q=0.9,image/avif,image/webp,image/apng,*/*;q=0.8,application/signed-exchange;v=b3;q=0.9
Referer: http://184.105.53.68:8080/cgi-bin/reservation
Accept-Encoding: gzip, deflate
Accept-Language: en-US,en;q=0.9
----
--Response 
HTTP/1.1 200 OK
Content-length: 0000002664
Connection: Keep-Alive
Content-type: text/html
----
--Request 
GET http://184.105.53.68:8080/tours/Merc10-dev/images/banner_animated.gif
Host: 184.105.53.68:8080
User-Agent: Mozilla/5.0 (Windows NT 10.0; Win64; x64) AppleWebKit/537.36 (KHTML, like Gecko) Chrome/90.0.4430.93 Safari/537.36
Accept: image/avif,image/webp,image/apng,image/svg+xml,image/*,*/*;q=0.8
Referer: http://184.105.53.68:8080/cgi-bin/home
Accept-Encoding: gzip, deflate
Accept-Language: en-US,en;q=0.9
----
--Response 
HTTP/1.1 200 OK
Content-Length: 16522
Content-Type: image/gif
Connection: Keep-Alive
----
--Request 
GET http://184.105.53.68:8080/tours/Merc10-dev/images/sun_swede.gif
Host: 184.105.53.68:8080
User-Agent: Mozilla/5.0 (Windows NT 10.0; Win64; x64) AppleWebKit/537.36 (KHTML, like Gecko) Chrome/90.0.4430.93 Safari/537.36
Accept: image/avif,image/webp,image/apng,image/svg+xml,image/*,*/*;q=0.8
Referer: http://184.105.53.68:8080/cgi-bin/home
Accept-Encoding: gzip, deflate
Accept-Language: en-US,en;q=0.9
----
--Response 
HTTP/1.1 200 OK
Content-Length: 4125
Content-Type: image/gif
Connection: Keep-Alive
----
--Request 
GET http://184.105.53.68:8080/tours/Merc10-dev/images/flights.gif
Host: 184.105.53.68:8080
User-Agent: Mozilla/5.0 (Windows NT 10.0; Win64; x64) AppleWebKit/537.36 (KHTML, like Gecko) Chrome/90.0.4430.93 Safari/537.36
Accept: image/avif,image/webp,image/apng,image/svg+xml,image/*,*/*;q=0.8
Referer: http://184.105.53.68:8080/cgi-bin/home
Accept-Encoding: gzip, deflate
Accept-Language: en-US,en;q=0.9
----
--Response 
HTTP/1.1 200 OK
Content-Length: 1519
Content-Type: image/gif
Connection: Keep-Alive
----
--Request 
GET http://184.105.53.68:8080/tours/Merc10-dev/images/home.gif
Host: 184.105.53.68:8080
User-Agent: Mozilla/5.0 (Windows NT 10.0; Win64; x64) AppleWebKit/537.36 (KHTML, like Gecko) Chrome/90.0.4430.93 Safari/537.36
Accept: image/avif,image/webp,image/apng,image/svg+xml,image/*,*/*;q=0.8
Referer: http://184.105.53.68:8080/cgi-bin/home
Accept-Encoding: gzip, deflate
Accept-Language: en-US,en;q=0.9
----
--Response 
HTTP/1.1 200 OK
Content-Length: 1268
Content-Type: image/gif
Connection: Keep-Alive
----
--Request 
GET http://184.105.53.68:8080/tours/Merc10-dev/images/signoff.gif
Host: 184.105.53.68:8080
User-Agent: Mozilla/5.0 (Windows NT 10.0; Win64; x64) AppleWebKit/537.36 (KHTML, like Gecko) Chrome/90.0.4430.93 Safari/537.36
Accept: image/avif,image/webp,image/apng,image/svg+xml,image/*,*/*;q=0.8
Referer: http://184.105.53.68:8080/cgi-bin/home
Accept-Encoding: gzip, deflate
Accept-Language: en-US,en;q=0.9
----
--Response 
HTTP/1.1 200 OK
Content-Length: 1260
Content-Type: image/gif
Connection: Keep-Alive
----
--Request 
GET http://184.105.53.68:8080/tours/images/banner_merctur.jpg
Host: 184.105.53.68:8080
User-Agent: Mozilla/5.0 (Windows NT 10.0; Win64; x64) AppleWebKit/537.36 (KHTML, like Gecko) Chrome/90.0.4430.93 Safari/537.36
Accept: image/avif,image/webp,image/apng,image/svg+xml,image/*,*/*;q=0.8
Referer: http://184.105.53.68:8080/cgi-bin/home
Accept-Encoding: gzip, deflate
Accept-Language: en-US,en;q=0.9
----
--Response 
HTTP/1.1 200 OK
Content-Length: 22548
Content-Type: image/jpeg
Connection: Keep-Alive
----
--Request 
GET http://184.105.53.68:8080/tours/vep/images/velocigen.gif
Host: 184.105.53.68:8080
User-Agent: Mozilla/5.0 (Windows NT 10.0; Win64; x64) AppleWebKit/537.36 (KHTML, like Gecko) Chrome/90.0.4430.93 Safari/537.36
Accept: image/avif,image/webp,image/apng,image/svg+xml,image/*,*/*;q=0.8
Referer: http://184.105.53.68:8080/cgi-bin/home
Accept-Encoding: gzip, deflate
Accept-Language: en-US,en;q=0.9
----
--Response 
HTTP/1.1 200 OK
Content-Length: 2018
Content-Type: image/gif
Connection: Keep-Alive
----

